singular	plural
{'pronoun_n} ist so süß.	{'pronoun_n} sind so süß.
Ist das {possessive_determiner_m_n} Hund?	
Ich bin {pronoun_d} erst kürzlich begegnet.	
Ich verstehe {pronoun_a} so gut.	
Darum kümmert sich {pronoun_n}.	Darum kümmern sich {pronoun_n}.
{'pronoun_n} hat das Telefon abgehoben.	{'pronoun_n} haben das Telefon abgehoben.
{'pronoun_n} spricht während {pronoun_n} schläft.	{'pronoun_n} sprechen während {pronoun_n} schläft.
Wir nehmen uns {pronoun_g} an.	
Wir erfreuen uns {pronoun_g}.	
Hast du Lust, mit {pronoun_d} ins Kino zu gehen?	
Ich habe gestern mit {pronoun_d} gesprochen.	
Ich bin mit {pronoun_d} zur Schule gegangen.	
Ich habe {pronoun_a} gestern getroffen.	
Wir haben das letzte Mal über {pronoun_a} gesprochen.	
{'pronoun_a} kenne ich schon lange.	
Kannst du {pronoun_d} Bescheid geben, wenn {possessive_determiner_f_n} Katze aufwacht?	
{'possessive_determiner_f_n} Abschlussfeier beginnt bald.	
{'pronoun_n} kümmert sich sehr gut um {possessive_determiner_f_a} Katze.	{'pronoun_n} kümmern sich sehr gut um {possessive_determiner_f_a} Katze.
Ich habe {pronoun_a} gefragt, ob ich {possessive_determiner_m_a} Bleistift ausleihen kann.	
Heute hat {pronoun_n} {possessive_determiner_m_a} Apfel, {possessive_determiner_f_a} Birne und {possessive_determiner_n_a} Törtchen dabei.	Heute haben {pronoun_n} {possessive_determiner_m_a} Apfel, {possessive_determiner_f_a} Birne und {possessive_determiner_n_a} Törtchen dabei.
{'possessive_determiner_n_n} Kaninchen spielt mit {possessive_determiner_m_d} Hund.	
Das ist das Ladekabel {possessive_determiner_m_g} Computers.	
Der Stall {possessive_determiner_n_g} Pferdes wird von {pronoun_d} wöchentlich besucht.	
Mit {possessive_determiner_n_d} Fahrrad kommt {pronoun_n} sicher ans Ziel.	Mit {possessive_determiner_n_d} Fahrrad kommen {pronoun_n} sicher ans Ziel.
Ich vermisse {possessive_determiner_n_a} Lachen.	
{'possessive_determiner_x_n} Freund*in besucht {pronoun_a} morgen.	
Kennst du die Telefonnummer {possessive_determiner_x_g} Ärzt*in?	
{'pronoun_n} bringt {possessive_determiner_x_d} Partner*in ein Geschenk.	
Hast du {possessive_determiner_x_a} Freund*in gesehen?	
{'possessive_determiner_pl_n} Mitarbeitenden sind hilfsbereit.	
Den Umfang {possessive_determiner_pl_g} Aufgaben kann {pronoun_n} leicht bewältigen.	
Bringe bitte {possessive_determiner_pl_d} Haustiere frisches Futter mit.	
Wir schätzen {possessive_determiner_pl_a} Ideen.	
Meine Lieblingsfarbe ist violett, {possessive_pronoun_f_n} ist gelb.	
Ich hätte gerne eine Schildkröte, die so aussieht wie {possessive_pronoun_f_n}.	
Es bedarf meiner Hilfe, nicht {possessive_pronoun_f_g}.	
Dieses Jahr sind wir in meiner Stadt, nächstes in {possessive_pronoun_f_d}.	
Ich mag meine Arbeit, während {possessive_pronoun_f_a} mich überfordern würde.	
{'possessive_determiner_m_a} Geburtstag kann {pronoun_n} kaum erwarten, {possessive_pronoun_m_n} ist aber erst in drei Monaten.	{‘possessive_determiner_m_a} Geburtstag können {pronoun_n} kaum erwarten, {possessive_pronoun_m_n} ist aber erst in drei Monaten.
Mein Kuchen ist sehr lecker, schmeckt {pronoun_d} auch {possessive_pronoun_m_n}?	
Wir sind uns unseres Fehlers bewusst, {pronoun_n} sich auch {possessive_pronoun_m_g}?	
Ich spiele gerne mit meinem Ball, aber gelegentlich auch mit {possessive_pronoun_m_d}.	
Bei der Suche nach interessanten Artikeln bin ich auf {possessive_pronoun_m_a} gestoßen.	
{'pronoun_n} hat mir gesagt, dieses Haus ist {possessive_pronoun_n_n}.	
Versprechen sind einzuhalten, und ich erinnere mich {possessive_pronoun_n_g}.	
Du trinkst von deinem Glas und {pronoun_n} von {possessive_pronoun_n_d}.	
Du kaufst dein neues Outfit und {pronoun_n} {possessive_pronoun_n_a}.	
Meine Eltern unterstützen {pronoun_a}. Und {possessive_pronoun_pl_n}?	
Wir brauchen noch Geschirr für das Picknick, also bedienen wir uns {possessive_pronoun_pl_g}.	
Es ist wichtig Kontakt mit Bekannten zu halten, also schreibt {pronoun_n} häufig {possessive_pronoun_pl_d}.	Es ist wichtig Kontakt mit Bekannten zu halten, also schreiben {pronoun_n} häufig {possessive_pronoun_pl_d}.
Heute sind die Bücher angekommen, bitte gebe {pronoun_d} {possessive_pronoun_pl_a}.	
{'relative_n} Einzige, {relative_a} ich kenne, {relative_d} wir noch einen Gefallen schulden.	{'relative_n} Einzigen, {relative_a} ich kenne, {relative_d} wir noch einen Gefallen schulden.
{'demonstrative_n} Studierende kennt alle Lösungen {possessive_determiner_f_g} Übungsaufgabe.	{'demonstrative_n} Studierende kennen alle Lösungen {possessive_determiner_f_g} Übungsaufgabe.
{‘demonstrative_n} drüben ist hübsch.	{‘demonstrative_n} drüben sind hübsch.
Gib das einfach {demonstrative_d} da.	
Mit {pronoun_equal} komme ich gut zurecht.	
Mein Fahrrad ist schneller als das {possessive_pronoun_substantivized}.	
{'pronoun_n} möchte nicht, dass wir nur {adverb_because} einen Umweg fahren.	{'pronoun_n} möchten nicht, dass wir nur {adverb_because} einen Umweg fahren.
{'adverb_because} sollen wir nicht auf {pronoun_a} warten.	
{'adverb_back_then} wurden {possessive_determiner_pl_n} Ideen kontrovers diskutiert.	
Mit {possessive_determiner_f_d} großer Geduld reagiert {pronoun_n} {adverb_by} gelassen auf die unruhige Situation.	Mit {possessive_determiner_f_d} großer Geduld reagieren {pronoun_n} {adverb_by} gelassen auf die unruhige Situation.
Das {adjective_back_then}e Motto lautete: „Wir schaffen das!“	
