singular	plural
איך טראַכט ‎אַז {pronoun_n} איז זייער ליב.	איך טראַכט ‎אַז {pronoun_n} זענען זייער ליב.
איז דאָס {pronoun_g} הויז?	
איך האָב {pronoun_d} ערשט לעצטנס באַגעגנט.	
איך פֿאַרשטיי {pronoun_a} זייער גוט.	
איז דאָס {pronoun_n}, {article_n} וואָס האָט גערופן?	זענען דאָס {pronoun_n}, {article_n} וואָס האָבן גערופן?
